{"status":true,"items":[{"tmdb":{"type":"tv","id":"270444","season":1,"vote_average":10,"vote_count":1},"imdb":{"id":"tt33322230","vote_average":0,"vote_count":0},"modified":{"time":"2026-02-11T16:08:43.000Z"},"_id":"698c416ab06c99c722f01185","name":"Những Đứa Trẻ Nhuốm Chì","slug":"nhung-dua-tre-nhuom-chi","origin_name":"Lead Children","thumb_url":"nhung-dua-tre-nhuom-chi-thumb.jpg","poster_url":"nhung-dua-tre-nhuom-chi-poster.jpg","year":2026},{"tmdb":{"type":"movie","id":"1426964","season":null,"vote_average":0,"vote_count":0},"imdb":{"id":"tt39369643","vote_average":0,"vote_count":0},"modified":{"time":"2026-02-11T16:04:14.000Z"},"_id":"698c40bef65d22d617a81b6b","name":"Thành Phố Sợ Hãi","slug":"thanh-pho-so-hai","origin_name":"State of Fear","thumb_url":"thanh-pho-so-hai-thumb.jpg","poster_url":"thanh-pho-so-hai-poster.jpg","year":2026},{"tmdb":{"type":"tv","id":"310024","season":1,"vote_average":0,"vote_count":0},"imdb":{"id":"tt39306333","vote_average":0,"vote_count":0},"modified":{"time":"2026-02-11T15:39:43.000Z"},"_id":"696e2148d88856be7711d7a9","name":"Hoa Máu","slug":"hoa-mau-2026","origin_name":"Bloody Flower","thumb_url":"hoa-mau-2026-thumb.jpg","poster_url":"hoa-mau-2026-poster.jpg","year":2026},{"tmdb":{"type":"tv","id":"312917","season":1,"vote_average":0,"vote_count":0},"imdb":{"id":"","vote_average":0,"vote_count":0},"modified":{"time":"2026-02-11T14:02:41.000Z"},"_id":"69855ba854ca9185bbac1eb8","name":"Đường Quỷ Kỳ Án","slug":"duong-quy-ky-an","origin_name":"Mysterious and Absurd Cases of the Tang  Dynasty","thumb_url":"duong-quy-ky-an-thumb.jpg","poster_url":"duong-quy-ky-an-poster.jpg","year":2026},{"tmdb":{"type":"movie","id":"1171145","season":null,"vote_average":9,"vote_count":2},"imdb":{"id":"tt32430579","vote_average":0,"vote_count":0},"modified":{"time":"2026-02-11T14:02:04.000Z"},"_id":"698c296ada6ce23e8e98e114","name":"Tội Phạm 101","slug":"toi-pham-101","origin_name":"Crime 101","thumb_url":"toi-pham-101-thumb.jpg","poster_url":"toi-pham-101-poster.jpg","year":2026},{"tmdb":{"type":"movie","id":"1159559","season":null,"vote_average":0,"vote_count":0},"imdb":{"id":"tt27047903","vote_average":0,"vote_count":0},"modified":{"time":"2026-02-11T14:00:32.000Z"},"_id":"698c290b97c71dcd0d6951da","name":"Tiếng Thét 7","slug":"tieng-thet-7","origin_name":"Scream 7","thumb_url":"tieng-thet-7-thumb.jpg","poster_url":"tieng-thet-7-poster.jpg","year":2026},{"tmdb":{"type":"movie","id":"1297842","season":null,"vote_average":7,"vote_count":6},"imdb":{"id":"tt27613895","vote_average":0,"vote_count":0},"modified":{"time":"2026-02-11T13:59:38.000Z"},"_id":"698c28da32adc86a1e7393ff","name":"Tuyển Thủ Dê: \"Mùi\" Vị Chiến Thắng","slug":"tuyen-thu-de-mui-vi-chien-thang","origin_name":"GOAT","thumb_url":"tuyen-thu-de-mui-vi-chien-thang-thumb.jpg","poster_url":"tuyen-thu-de-mui-vi-chien-thang-poster.jpg","year":2026},{"tmdb":{"type":"tv","id":"273275","season":1,"vote_average":0,"vote_count":0},"imdb":{"id":"","vote_average":0,"vote_count":0},"modified":{"time":"2026-02-11T13:57:59.000Z"},"_id":"69895b6eb9fc4b5429662af5","name":"Thanh Xuân Trở Lại","slug":"thanh-xuan-tro-lai","origin_name":"We Are Still Young","thumb_url":"thanh-xuan-tro-lai-thumb.jpg","poster_url":"thanh-xuan-tro-lai-poster.jpg","year":2026},{"tmdb":{"type":"tv","id":"280948","season":1,"vote_average":7.9,"vote_count":11},"imdb":{"id":"tt39137681","vote_average":0,"vote_count":0},"modified":{"time":"2026-02-11T13:54:04.000Z"},"_id":"695c9827124287e082503599","name":"Cơn Say Mùa Xuân","slug":"con-say-mua-xuan","origin_name":"Spring Fever","thumb_url":"con-say-mua-xuan-thumb.jpg","poster_url":"con-say-mua-xuan-poster.jpg","year":2026},{"tmdb":{"type":"tv","id":"285770","season":1,"vote_average":7.6,"vote_count":25},"imdb":{"id":"tt37506062","vote_average":7.4,"vote_count":231},"modified":{"time":"2026-02-11T13:52:31.000Z"},"_id":"690975fff53a53204a297adc","name":"Rất Vui Không Gặp Em","slug":"rat-vui-khong-gap-em","origin_name":"Nice to Not Meet You","thumb_url":"rat-vui-khong-gap-em-thumb.jpg","poster_url":"rat-vui-khong-gap-em-poster.jpg","year":2025},{"tmdb":{"type":"tv","id":"79744","season":8,"vote_average":8.529,"vote_count":2930},"imdb":{"id":"tt7587890","vote_average":8,"vote_count":116400},"modified":{"time":"2026-02-11T13:35:48.000Z"},"_id":"6966276b4da3bf6eb331cdd6","name":"Lính Mới (Phần 8)","slug":"linh-moi-phan-8","origin_name":"The Rookie (Season 8)","thumb_url":"linh-moi-phan-8-thumb.jpg","poster_url":"linh-moi-phan-8-poster.jpg","year":2026},{"tmdb":{"type":"movie","id":"1373198","season":null,"vote_average":4.6,"vote_count":19},"imdb":{"id":"tt14201728","vote_average":0,"vote_count":0},"modified":{"time":"2026-02-11T12:27:21.000Z"},"_id":"698c0e321d0b515454a742e6","name":"Xoắn Quẩy","slug":"xoan-quay","origin_name":"Twisted","thumb_url":"xoan-quay-thumb.jpg","poster_url":"xoan-quay-poster.jpg","year":2026},{"tmdb":{"type":"tv","id":"262262","season":1,"vote_average":8.1,"vote_count":9},"imdb":{"id":"tt33741848","vote_average":0,"vote_count":0},"modified":{"time":"2026-02-11T12:10:45.000Z"},"_id":"6989e6adccc6cea26875815d","name":"Đầm Lầy Muối","slug":"dam-lay-muoi","origin_name":"Under Salt Marsh","thumb_url":"dam-lay-muoi-thumb.jpg","poster_url":"dam-lay-muoi-poster.jpg","year":2026},{"tmdb":{"type":"tv","id":"136311","season":3,"vote_average":7.801,"vote_count":521},"imdb":{"id":"tt15677150","vote_average":8.1,"vote_count":105904},"modified":{"time":"2026-02-11T12:03:19.000Z"},"_id":"697ad7a5ccc6cea2687420cb","name":"Liệu Pháp Sự Thật (Phần 3)","slug":"lieu-phap-su-that-phan-3","origin_name":"Shrinking (Season 3)","thumb_url":"lieu-phap-su-that-phan-3-thumb.jpg","poster_url":"lieu-phap-su-that-phan-3-poster.jpg","year":2026},{"tmdb":{"type":"movie","id":"1609617","season":null,"vote_average":3,"vote_count":1},"imdb":{"id":"","vote_average":0,"vote_count":0},"modified":{"time":"2026-02-11T11:25:19.000Z"},"_id":"698c03d6458948c6799dec6b","name":"Bách Dạ Lâu","slug":"bach-da-lau","origin_name":"Huckster","thumb_url":"bach-da-lau-thumb.jpg","poster_url":"bach-da-lau-poster.jpg","year":2026},{"tmdb":{"type":"tv","id":"198102","season":2,"vote_average":7.6,"vote_count":698},"imdb":{"id":"tt19854762","vote_average":7.4,"vote_count":87047},"modified":{"time":"2026-02-11T11:22:25.000Z"},"_id":"696728bdb06c99c722ecf24f","name":"Không Tặc (Phần 2)","slug":"khong-tac-phan-2","origin_name":"Hijack (Season 2)","thumb_url":"khong-tac-phan-2-thumb.jpg","poster_url":"khong-tac-phan-2-poster.jpg","year":2026},{"tmdb":{"type":"tv","id":"278127","season":1,"vote_average":0,"vote_count":0},"imdb":{"id":"tt34452086","vote_average":0,"vote_count":0},"modified":{"time":"2026-02-11T11:19:12.000Z"},"_id":"692eebbdb545a8d6e7dde723","name":"Đường Cung Kỳ Án: Thanh Vụ Phong Minh","slug":"duong-cung-ky-an-thanh-vu-phong-minh","origin_name":"Unveil: Jadewind","thumb_url":"duong-cung-ky-an-thanh-vu-phong-minh-thumb-1770343152878.jpg","poster_url":"duong-cung-ky-an-thanh-vu-phong-minh-poster.jpg","year":2026},{"tmdb":{"type":"tv","id":"295426","season":1,"vote_average":0,"vote_count":0},"imdb":{"id":"","vote_average":0,"vote_count":0},"modified":{"time":"2026-02-11T11:16:55.000Z"},"_id":"698c02a71d0b515454a741d8","name":"Game Vàng Đen","slug":"game-vang-den","origin_name":"Black Gold Game","thumb_url":"game-vang-den-thumb.jpg","poster_url":"game-vang-den-poster.jpg","year":2026},{"tmdb":{"type":"tv","id":"","season":null,"vote_average":0,"vote_count":0},"imdb":{"id":"","vote_average":0,"vote_count":0},"modified":{"time":"2026-02-11T11:14:26.000Z"},"_id":"698c0220f07c400a86c50eea","name":"Bút Thần","slug":"but-than","origin_name":"The Divine Pen","thumb_url":"but-than-thumb.jpg","poster_url":"but-than-poster.jpg","year":2026},{"tmdb":{"type":"tv","id":"313056","season":1,"vote_average":0,"vote_count":0},"imdb":{"id":"","vote_average":0,"vote_count":0},"modified":{"time":"2026-02-11T11:11:11.000Z"},"_id":"698569444ea2111da8b74e11","name":"Chân Tướng Bị Che Giấu","slug":"chan-tuong-bi-che-giau","origin_name":"The Hidden Truth","thumb_url":"chan-tuong-bi-che-giau-thumb.jpg","poster_url":"chan-tuong-bi-che-giau-poster.jpg","year":2026},{"tmdb":{"type":"tv","id":"312533","season":1,"vote_average":0,"vote_count":0},"imdb":{"id":"","vote_average":0,"vote_count":0},"modified":{"time":"2026-02-11T11:10:54.000Z"},"_id":"69802310ae6f0c1fdf379499","name":"Phồn Hoa Lụi Tàn","slug":"phon-hoa-lui-tan","origin_name":"A Fairyland Beyond the Ordinary World","thumb_url":"phon-hoa-lui-tan-thumb.jpg","poster_url":"phon-hoa-lui-tan-poster.jpg","year":2026},{"tmdb":{"type":"tv","id":"313057","season":1,"vote_average":0,"vote_count":0},"imdb":{"id":"","vote_average":0,"vote_count":0},"modified":{"time":"2026-02-11T11:10:41.000Z"},"_id":"698559a0988d934ea9e68527","name":"Hầu Vua Như Hầu Cọp","slug":"hau-vua-nhu-hau-cop","origin_name":"Shall We Dance","thumb_url":"hau-vua-nhu-hau-cop-thumb.jpg","poster_url":"hau-vua-nhu-hau-cop-poster.jpg","year":2026},{"tmdb":{"type":"tv","id":"283950","season":1,"vote_average":8.5,"vote_count":2},"imdb":{"id":"tt36968175","vote_average":0,"vote_count":0},"modified":{"time":"2026-02-11T11:09:06.000Z"},"_id":"6975965ad88856be771275ec","name":"Nữ Thần Bàng Thượng Nhãn","slug":"nu-than-bang-thuong-nhan","origin_name":"The Inner Eye","thumb_url":"nu-than-bang-thuong-nhan-thumb.jpg","poster_url":"nu-than-bang-thuong-nhan-poster.jpg","year":2026},{"tmdb":{"type":"tv","id":"306296","season":1,"vote_average":0,"vote_count":0},"imdb":{"id":"","vote_average":0,"vote_count":0},"modified":{"time":"2026-02-11T09:37:51.000Z"},"_id":"694541fa400bf394bd7eb050","name":"Tử Cấm: Ngự Miêu Phòng","slug":"tu-cam-ngu-mieu-phong","origin_name":"Forbidden City: Imperial Cats","thumb_url":"tu-cam-ngu-mieu-phong-thumb.jpg","poster_url":"tu-cam-ngu-mieu-phong-poster.jpg","year":2025}],"pathImage":"https://img.ophim.live/uploads/movies/","pagination":{"totalItems":34531,"totalItemsPerPage":24,"currentPage":1,"totalPages":1439}}